Reading, querying and writing GWAS summary data in VCF format • gwasvcf
…
Create a data frame:

vcf_to_granges(vcf) %>% dplyr::as_tibble()
#> # A tibble: 92 × 20
#>    seqnames  start    end width strand paramR…¹ REF   ALT    QUAL FILTER      ES
#>    <fct>     <int>  <int> <int> <fct>  <fct>    <chr> <chr> <dbl> <chr>    <dbl>
#>  1 1        721290 721290     1 *      NA       G     C        NA PASS   -0.0067
#>  2 1        723819 723819     1 *      NA       T     A        NA PASS   -0.0146
#>  3 1        723891 723891     1 *      NA       G     C        NA PASS    0.0044
#>  4 1        752566 752566     1 *      NA       G     A        NA PASS    0.006 
#>  5 1        753541 753541     1 *      NA       G     A        NA PASS    0.0035
#>  6 1        754192 754192     1 *      NA       A     G        NA PASS    0.0077
#>  7 1        768448 768448     1 *      NA       G     A        NA PASS   -0.0027
#>  8 1        775659 775659     1 *      NA       A     G        NA PASS    0.0029
#>  9 1        777122 777122     1 *      NA       A     T        NA PASS    0.0031
#> 10 1        779322 779322     1 *      NA       A     G        NA PASS   -0.0062
#> # … with 82 more rows, 9 more variables: SE <dbl>, LP <dbl>, AF <dbl>,
#> #   SS <dbl>, EZ <dbl>, SI <dbl>, NC <dbl>, ID <chr>, id <chr>, and abbreviated
#> #   variable name ¹​paramRangeID
…
